Quantitative Methods
…
class: middle

## Extracting data from CRSP

Let compute our own simple returns for the entier data base and compare with the precomputed returns

```r
google <- google %>% arrange(date) %>% 
  mutate(ret_s=round(PRC/lag(PRC)-1,digits=6),
         test=RET==ret_s)
google
```

```
## # A tibble: 4,436 × 7
##    PERMNO COMNAM     date         PRC      RET    ret_s test 
##     <dbl> <chr>      <date>     <dbl>    <dbl>    <dbl> <lgl>
##  1  90319 GOOGLE INC 2004-08-19  100. NA       NA       NA   
##  2  90319 GOOGLE INC 2004-08-20  108.  0.0795   0.0795  TRUE 
##  3  90319 GOOGLE INC 2004-08-23  109.  0.0101   0.0101  TRUE 
##  4  90319 GOOGLE INC 2004-08-24  105. -0.0414  -0.0414  TRUE 
##  5  90319 GOOGLE INC 2004-08-25  106   0.0108   0.0108  TRUE 
##  6  90319 GOOGLE INC 2004-08-26  108.  0.0180   0.0180  TRUE 
##  7  90319 GOOGLE INC 2004-08-27  106. -0.0163  -0.0163  TRUE 
##  8  90319 GOOGLE INC 2004-08-30  102. -0.0390  -0.0390  TRUE 
##  9  90319 GOOGLE INC 2004-08-31  102.  0.00353  0.00353 TRUE 
## 10  90319 GOOGLE INC 2004-09-01  100. -0.0207  -0.0207  TRUE 
## # … with 4,426 more rows
```
…
```
## [1] 4408
```

It is not the case. 

--

```r
google %>% filter(test==FALSE)
```

```
## # A tibble: 27 × 7
##    PERMNO COMNAM     date         PRC       RET     ret_s test 
##     <dbl> <chr>      <date>     <dbl>     <dbl>     <dbl> <lgl>
##  1  90319 GOOGLE INC 2004-10-21  149.  0.0633    0.0633   FALSE
##  2  90319 GOOGLE INC 2005-01-11  194. -0.00779  -0.00779  FALSE
##  3  90319 GOOGLE INC 2005-02-01  192. -0.0190   -0.0190   FALSE
##  4  90319 GOOGLE INC 2005-02-16  198.  0.0163    0.0163   FALSE
##  5  90319 GOOGLE INC 2005-10-28  358.  0.0145    0.0145   FALSE
##  6  90319 GOOGLE INC 2006-12-04  485.  0.00842   0.00842  FALSE
##  7  90319 GOOGLE INC 2007-04-13  466. -0.00235  -0.00235  FALSE
##  8  90319 GOOGLE INC 2007-11-19  626. -0.0123   -0.0123   FALSE
##  9  90319 GOOGLE INC 2008-07-28  477. -0.0302   -0.0302   FALSE
## 10  90319 GOOGLE INC 2008-10-31  359. -0.000918 -0.000917 FALSE
## # … with 17 more rows
```
…
